Azure, Pins Input, Docker Endpoint
…
To run the docker container, we need to pass in the environment variables for the code to connect to the Connect server. We could pass in the system environment variables, but we will be safer if we just pass in what we need. We do this by creating a project-specific .Renviron file. (fs::file_touch(".Renviron")) and specifying AZURE_CONTAINER_ENDPOINT and AZURE_SAS_KEY in that file.

Then we run docker run command. We set 2 flags, --env-file to pass in the environment variables we need, and --publish to specify the port.

docker run --env-file .Renviron --publish 8080:8080 flights

Make predictions from Docker container

Now that the docker container is running we can create an endpoint with vetiver_endpoint(), and that endpoint can be used as a way to make predictions.

endpoint <- vetiver_endpoint("http://0.0.0.0:8080/predict")

predict(endpoint, flights_training)

# A tibble: 2,817 × 1
    .pred
    <dbl>
 1  -1.79
 2 -13.3 
 3 -17.3 
 4  -3.67
 5  82.8 
 6  52.2 
 7  10.7 
 8   8.04
 9  58.1 
10   5.39
# ℹ 2,807 more rows
